^C:\Users\Creator\Documents\Visual Studio 2010\Projects\simple_edf_mission_parser\simple_edf_mission_parser\simple_edf_mission_parser.vcxproj
C:\Users\Creator\Documents\Visual Studio 2010\Projects\simple_edf_mission_parser\Release\EDF Tools.ipdb
C:\Users\Creator\Documents\Visual Studio 2010\Projects\simple_edf_mission_parser\Release\EDF Tools.iobj
^C:\Users\Creator\Documents\Visual Studio 2010\Projects\simple_edf_mission_parser\simple_edf_mission_parser\simple_edf_mission_parser.vcxproj
C:\Users\Creator\Documents\Visual Studio 2010\Projects\simple_edf_mission_parser\Release\EDF Tools.ipdb
C:\Users\Creator\Documents\Visual Studio 2010\Projects\simple_edf_mission_parser\Release\EDF Tools.iobj
^C:\Users\Creator\Documents\Visual Studio 2010\Projects\simple_edf_mission_parser\simple_edf_mission_parser\simple_edf_mission_parser.vcxproj
C:\Users\Creator\Documents\Visual Studio 2010\Projects\simple_edf_mission_parser\Release\EDF Tools.ipdb
C:\Users\Creator\Documents\Visual Studio 2010\Projects\simple_edf_mission_parser\Release\EDF Tools.iobj
^C:\Users\Creator\Documents\Visual Studio 2010\Projects\simple_edf_mission_parser\simple_edf_mission_parser\simple_edf_mission_parser.vcxproj
C:\Users\Creator\Documents\Visual Studio 2010\Projects\simple_edf_mission_parser\Release\EDF Tools.ipdb
C:\Users\Creator\Documents\Visual Studio 2010\Projects\simple_edf_mission_parser\Release\EDF Tools.iobj
^C:\Users\Creator\Documents\Visual Studio 2010\Projects\simple_edf_mission_parser\simple_edf_mission_parser\simple_edf_mission_parser.vcxproj
C:\Users\Creator\Documents\Visual Studio 2010\Projects\simple_edf_mission_parser\Release\EDF Tools.ipdb
C:\Users\Creator\Documents\Visual Studio 2010\Projects\simple_edf_mission_parser\Release\EDF Tools.iobj
^C:\Users\Creator\Documents\Visual Studio 2010\Projects\simple_edf_mission_parser\simple_edf_mission_parser\simple_edf_mission_parser.vcxproj
C:\Users\Creator\Documents\Visual Studio 2010\Projects\simple_edf_mission_parser\Release\EDF Tools.ipdb
C:\Users\Creator\Documents\Visual Studio 2010\Projects\simple_edf_mission_parser\Release\EDF Tools.iobj
^C:\Users\Creator\Documents\Visual Studio 2010\Projects\simple_edf_mission_parser\simple_edf_mission_parser\simple_edf_mission_parser.vcxproj
C:\Users\Creator\Documents\Visual Studio 2010\Projects\simple_edf_mission_parser\Release\EDF Tools.ipdb
C:\Users\Creator\Documents\Visual Studio 2010\Projects\simple_edf_mission_parser\Release\EDF Tools.iobj
^C:\Users\Creator\Documents\Visual Studio 2010\Projects\simple_edf_mission_parser\simple_edf_mission_parser\simple_edf_mission_parser.vcxproj
C:\Users\Creator\Documents\Visual Studio 2010\Projects\simple_edf_mission_parser\Release\EDF Tools.ipdb
C:\Users\Creator\Documents\Visual Studio 2010\Projects\simple_edf_mission_parser\Release\EDF Tools.iobj
^C:\Users\Creator\Documents\Visual Studio 2010\Projects\simple_edf_mission_parser\simple_edf_mission_parser\simple_edf_mission_parser.vcxproj
C:\Users\Creator\Documents\Visual Studio 2010\Projects\simple_edf_mission_parser\Release\EDF Tools.ipdb
C:\Users\Creator\Documents\Visual Studio 2010\Projects\simple_edf_mission_parser\Release\EDF Tools.iobj
^C:\Users\Creator\Documents\Visual Studio 2010\Projects\simple_edf_mission_parser\simple_edf_mission_parser\simple_edf_mission_parser.vcxproj
C:\Users\Creator\Documents\Visual Studio 2010\Projects\simple_edf_mission_parser\Release\EDF Tools.ipdb
C:\Users\Creator\Documents\Visual Studio 2010\Projects\simple_edf_mission_parser\Release\EDF Tools.iobj
^C:\Users\Creator\Documents\Visual Studio 2010\Projects\simple_edf_mission_parser\simple_edf_mission_parser\simple_edf_mission_parser.vcxproj
C:\Users\Creator\Documents\Visual Studio 2010\Projects\simple_edf_mission_parser\Release\EDF Tools.ipdb
C:\Users\Creator\Documents\Visual Studio 2010\Projects\simple_edf_mission_parser\Release\EDF Tools.iobj
^C:\Users\Creator\Documents\Visual Studio 2010\Projects\simple_edf_mission_parser\simple_edf_mission_parser\simple_edf_mission_parser.vcxproj
C:\Users\Creator\Documents\Visual Studio 2010\Projects\simple_edf_mission_parser\Release\EDF Tools.ipdb
C:\Users\Creator\Documents\Visual Studio 2010\Projects\simple_edf_mission_parser\Release\EDF Tools.iobj
^C:\Users\Creator\Documents\Visual Studio 2010\Projects\simple_edf_mission_parser\simple_edf_mission_parser\simple_edf_mission_parser.vcxproj
C:\Users\Creator\Documents\Visual Studio 2010\Projects\simple_edf_mission_parser\Release\EDF Tools.ipdb
C:\Users\Creator\Documents\Visual Studio 2010\Projects\simple_edf_mission_parser\Release\EDF Tools.iobj
^C:\Users\Creator\Documents\Visual Studio 2010\Projects\simple_edf_mission_parser\simple_edf_mission_parser\simple_edf_mission_parser.vcxproj
C:\Users\Creator\Documents\Visual Studio 2010\Projects\simple_edf_mission_parser\Release\EDF Tools.ipdb
C:\Users\Creator\Documents\Visual Studio 2010\Projects\simple_edf_mission_parser\Release\EDF Tools.iobj
^C:\Users\Creator\Documents\Visual Studio 2010\Projects\simple_edf_mission_parser\simple_edf_mission_parser\simple_edf_mission_parser.vcxproj
C:\Users\Creator\Documents\Visual Studio 2010\Projects\simple_edf_mission_parser\Release\EDF Tools.ipdb
C:\Users\Creator\Documents\Visual Studio 2010\Projects\simple_edf_mission_parser\Release\EDF Tools.iobj
^C:\Users\Creator\Documents\Visual Studio 2010\Projects\simple_edf_mission_parser\simple_edf_mission_parser\simple_edf_mission_parser.vcxproj
C:\Users\Creator\Documents\Visual Studio 2010\Projects\simple_edf_mission_parser\Release\EDF Tools.ipdb
C:\Users\Creator\Documents\Visual Studio 2010\Projects\simple_edf_mission_parser\Release\EDF Tools.iobj
^C:\Users\Creator\Documents\Visual Studio 2010\Projects\simple_edf_mission_parser\simple_edf_mission_parser\simple_edf_mission_parser.vcxproj
C:\Users\Creator\Documents\Visual Studio 2010\Projects\simple_edf_mission_parser\Release\EDF Tools.ipdb
C:\Users\Creator\Documents\Visual Studio 2010\Projects\simple_edf_mission_parser\Release\EDF Tools.iobj
^C:\Users\Creator\Documents\Visual Studio 2010\Projects\simple_edf_mission_parser\simple_edf_mission_parser\simple_edf_mission_parser.vcxproj
C:\Users\Creator\Documents\Visual Studio 2010\Projects\simple_edf_mission_parser\Release\EDF Tools.ipdb
C:\Users\Creator\Documents\Visual Studio 2010\Projects\simple_edf_mission_parser\Release\EDF Tools.iobj
^C:\Users\Creator\Documents\Visual Studio 2010\Projects\simple_edf_mission_parser\simple_edf_mission_parser\simple_edf_mission_parser.vcxproj
C:\Users\Creator\Documents\Visual Studio 2010\Projects\simple_edf_mission_parser\Release\EDF Tools.ipdb
C:\Users\Creator\Documents\Visual Studio 2010\Projects\simple_edf_mission_parser\Release\EDF Tools.iobj
^C:\Users\Creator\Documents\Visual Studio 2010\Projects\simple_edf_mission_parser\simple_edf_mission_parser\simple_edf_mission_parser.vcxproj
C:\Users\Creator\Documents\Visual Studio 2010\Projects\simple_edf_mission_parser\Release\EDF Tools.ipdb
C:\Users\Creator\Documents\Visual Studio 2010\Projects\simple_edf_mission_parser\Release\EDF Tools.iobj
^C:\Users\Creator\Documents\Visual Studio 2010\Projects\simple_edf_mission_parser\simple_edf_mission_parser\simple_edf_mission_parser.vcxproj
C:\Users\Creator\Documents\Visual Studio 2010\Projects\simple_edf_mission_parser\Release\EDF Tools.ipdb
C:\Users\Creator\Documents\Visual Studio 2010\Projects\simple_edf_mission_parser\Release\EDF Tools.iobj
^C:\Users\Creator\Documents\Visual Studio 2010\Projects\simple_edf_mission_parser\simple_edf_mission_parser\simple_edf_mission_parser.vcxproj
C:\Users\Creator\Documents\Visual Studio 2010\Projects\simple_edf_mission_parser\Release\EDF Tools.ipdb
C:\Users\Creator\Documents\Visual Studio 2010\Projects\simple_edf_mission_parser\Release\EDF Tools.iobj
^C:\Users\Creator\Documents\Visual Studio 2010\Projects\simple_edf_mission_parser\simple_edf_mission_parser\simple_edf_mission_parser.vcxproj
C:\Users\Creator\Documents\Visual Studio 2010\Projects\simple_edf_mission_parser\Release\EDF Tools.ipdb
C:\Users\Creator\Documents\Visual Studio 2010\Projects\simple_edf_mission_parser\Release\EDF Tools.iobj
^C:\Users\Creator\Documents\Visual Studio 2010\Projects\simple_edf_mission_parser\simple_edf_mission_parser\simple_edf_mission_parser.vcxproj
C:\Users\Creator\Documents\Visual Studio 2010\Projects\simple_edf_mission_parser\Release\EDF Tools.ipdb
C:\Users\Creator\Documents\Visual Studio 2010\Projects\simple_edf_mission_parser\Release\EDF Tools.iobj
^C:\Users\Creator\Documents\Visual Studio 2010\Projects\simple_edf_mission_parser\simple_edf_mission_parser\simple_edf_mission_parser.vcxproj
C:\Users\Creator\Documents\Visual Studio 2010\Projects\simple_edf_mission_parser\Release\EDF Tools.ipdb
C:\Users\Creator\Documents\Visual Studio 2010\Projects\simple_edf_mission_parser\Release\EDF Tools.iobj
^C:\Users\Creator\Documents\Visual Studio 2010\Projects\simple_edf_mission_parser\simple_edf_mission_parser\simple_edf_mission_parser.vcxproj
C:\Users\Creator\Documents\Visual Studio 2010\Projects\simple_edf_mission_parser\Release\EDF Tools.ipdb
C:\Users\Creator\Documents\Visual Studio 2010\Projects\simple_edf_mission_parser\Release\EDF Tools.iobj
^C:\Users\Creator\Documents\Visual Studio 2010\Projects\simple_edf_mission_parser\simple_edf_mission_parser\simple_edf_mission_parser.vcxproj
C:\Users\Creator\Documents\Visual Studio 2010\Projects\simple_edf_mission_parser\Release\EDF Tools.ipdb
C:\Users\Creator\Documents\Visual Studio 2010\Projects\simple_edf_mission_parser\Release\EDF Tools.iobj
